{
    "categories": [
        {
            "e_name": "",
            "e_tip": "Do not set category",
            "f_name": "",
            "f_tip": "Do not set category",
            "value": "None"
        },
        {
            "e_name": "Other",
            "e_tip": "Other events",
            "f_name": "Other",
            "f_tip": "Other events",
            "value": "Other"
        },
        {
            "e_name": "Geophysical",
            "e_tip": "Geophysical (inc. landslide)",
            "f_name": "Geophysical",
            "f_tip": "Geophysical (inc. landslide)",
            "value": "Geo"},
        {
            "e_name": "Meteorological",
            "e_tip": "Meteorological (inc. flood)",
            "f_name": "Meteorological",
            "f_tip": "Meteorological (inc. flood)",
            "value": "Met"
        },
        {
            "e_name": "Safety",
            "e_tip": "General emergency and public safety",
            "f_name": "Safety",
            "f_tip": "General emergency and public safety",
            "value": "Safety"
        },
        {
            "e_name": "Security",
            "e_tip": "Law enforcement, military, homeland and local/private security",
            "f_name": "Security",
            "f_tip": "Law enforcement, military, homeland and local/private security",
            "value": "Security"
        },
        {
            "e_name": "Rescue",
            "e_tip": "Rescue and recovery",
            "f_name": "Rescue",
            "f_tip": "Rescue and recovery",
            "value": "Rescue"
        },
        {
            "e_name": "Fire",
            "e_tip": "Fire suppression and rescue",
            "f_name": "Fire",
            "f_tip": "Fire suppression and rescue",
            "value": "Fire"
        },
        {
            "e_name": "Health",
            "e_tip": "Medical and public health",
            "f_name": "Health",
            "f_tip": "Medical and public health",
            "value": "Health"
        },
        {
            "e_name": "Environmental",
            "e_tip": "Pollution and other environmental",
            "f_name": "Environmental",
            "f_tip": "Pollution and other environmental",
            "value": "Env"
        },
        {
            "e_name": "Transportation",
            "e_tip": "Public and private transportation",
            "f_name": "Transportation",
            "f_tip": "Public and private transportation",
            "value": "Transport"
        },
        {
            "e_name": "Infrastructure",
            "e_tip": "Utility, telecommunication, other non-transport infrastructure",
            "f_name": "Infrastructure",
            "f_tip": "Utility, telecommunication, other non-transport infrastructure",
            "value": "Infra"
        },
        {
            "e_name": "CBRNE",
            "e_tip": "Chemical, Biological, Radiological, Nuclear or High-Yield Explosive threat or attack",
            "f_name": "CBRNE",
            "f_tip": "Chemical, Biological, Radiological, Nuclear or High-Yield Explosive threat or attack",
            "value": "CBRNE"
        }
    ]
}